Time [s],RB,RA
4.953034375,0,1
5.135759000,1,1
5.137008000,1,0
5.138398000,0,0
5.139902000,1,0
5.141261000,0,0
5.142560000,0,1
5.144005000,1,1
5.145498000,0,1
5.147082000,1,1
5.148453000,1,0
5.149998000,0,0
5.151410000,1,0
5.152885000,0,0
5.154432000,1,0
5.155956000,0,0
5.157443000,1,0
5.158904000,1,1
5.160350000,0,1
5.161831000,1,1
5.163470000,0,1
5.165066000,1,1
5.166565000,0,1
5.167980000,1,1
5.169443000,0,1
5.170967000,1,1
5.172437000,0,1
5.173823000,0,0
5.175327000,1,0
5.176666000,0,0
5.178049000,1,0
5.179356000,0,0
5.180752000,1,0
5.182144000,0,0
5.183513000,1,0
5.184818000,0,0
5.186083000,1,0
5.187397000,0,0
5.188818000,1,0
5.190162000,0,0
5.191531000,1,0
5.192894000,0,0
5.194275000,1,0
5.195539000,0,0
5.196908000,1,0
5.198280000,0,0
5.199793000,1,0
5.201195000,0,0
5.202634000,1,0
5.203939000,0,0
5.205388000,1,0
5.206865000,0,0
5.208416000,1,0
5.209903000,0,0
5.211466000,1,0
5.212887000,0,0
5.214371000,1,0
5.215906000,1,1
5.217421000,0,1
5.218939000,1,1
5.220474000,0,1
5.221855000,1,1
5.223283000,0,1
5.224731000,0,0
5.226311000,1,0
5.227783000,0,0
5.229310000,0,1
5.230621000,0,0
5.232094000,0,1
5.233480000,1,1
5.234863000,0,1
5.236394000,1,1
5.237713000,0,1
5.239114000,1,1
5.240381000,0,1
5.241767000,1,1
5.243224000,0,1
5.244693000,1,1
5.246092000,0,1
5.247604000,1,1
5.248979000,0,1
5.250381000,1,1
5.251783000,0,1
5.253319000,1,1
5.254819000,0,1
5.256287000,1,1
5.257702000,0,1
5.259140000,1,1
5.260667000,0,1
5.262241000,1,1
5.263793000,0,1
5.265348000,1,1
5.266853000,0,1
5.268280000,1,1
5.269726000,0,1
5.271325000,1,1
5.272905000,0,1
5.274459000,1,1
5.275951000,0,1
5.277518000,1,1
5.279129000,0,1
5.280829000,1,1
5.282592000,0,1
5.284235000,1,1
5.285837000,0,1
5.287395000,1,1
5.288947000,0,1
5.290630000,1,1
5.292346000,0,1
5.293918000,1,1
5.295364000,0,1
5.296905000,1,1
5.298482000,0,1
5.300097000,1,1
5.301684000,0,1
5.303285000,1,1
5.304717000,0,1
5.306211000,1,1
5.307681000,0,1
5.309207000,1,1
5.310704000,0,1
5.312170000,1,1
5.313550000,0,1
5.314910000,1,1
5.316281000,0,1
5.317623000,1,1
5.319063000,0,1
5.320464000,1,1
5.321872000,0,1
5.323272000,1,1
5.324589000,0,1
5.325970000,1,1
5.327386000,0,1
5.328875000,1,1
5.330278000,0,1
5.331636000,1,1
5.332874000,0,1
5.334222000,1,1
5.335640000,0,1
5.337132000,1,1
5.338616000,0,1
5.340170000,1,1
5.341625000,0,1
5.343166000,1,1
5.344835000,0,1
5.346517000,1,1
5.348129000,0,1
5.349791000,1,1
5.351319000,0,1
5.352983000,1,1
5.354588000,0,1
5.356300000,1,1
5.357870000,0,1
5.359550000,1,1
5.361128000,0,1
5.362780000,1,1
5.364401000,0,1
5.366074000,1,1
5.367627000,0,1
5.369076000,1,1
5.370521000,0,1
5.372012000,1,1
5.373505000,0,1
5.374955000,1,1
5.376317000,0,1
5.377716000,1,1
5.379049000,0,1
5.380435000,1,1
5.381795000,0,1
5.383189000,1,1
5.384501000,0,1
5.385812000,1,1
5.387013000,0,1
5.388286000,1,1
5.389527000,0,1
5.390909000,1,1
5.392238000,0,1
5.393578000,1,1
5.394954000,0,1
5.396243000,1,1
5.397588000,0,1
5.399043000,1,1
5.400485000,0,1
5.401978000,1,1
5.403456000,0,1
5.404917000,1,1
5.406403000,0,1
5.407987000,1,1
5.409664000,0,1
5.411333000,1,1
5.412986000,0,1
5.414622000,1,1
5.416321000,0,1
5.418045000,1,1
5.419775000,0,1
5.421540000,1,1
5.423155000,0,1
5.424877000,1,1
5.426601000,0,1
5.428407000,1,1
5.430039000,0,1
5.431680000,1,1
5.433145000,0,1
5.434724000,1,1
5.436305000,0,1
5.437867000,1,1
5.439360000,0,1
5.440816000,1,1
5.442167000,0,1
5.443630000,1,1
5.445100000,0,1
5.446546000,1,1
5.447892000,0,1
5.449280000,1,1
5.450535000,0,1
5.451828000,1,1
5.453178000,0,1
5.454541000,1,1
5.455864000,0,1
5.457248000,1,1
5.458588000,0,1
5.459897000,1,1
5.461241000,0,1
5.462626000,1,1
5.464061000,0,1
5.465490000,1,1
5.466966000,0,1
5.468281000,1,1
5.469656000,0,1
5.471160000,1,1
5.472674000,0,1
5.474221000,1,1
5.475797000,0,1
5.477328000,1,1
5.478902000,0,1
5.480569000,1,1
5.482214000,0,1
5.483773000,1,1
5.485323000,0,1
5.486825000,1,1
5.488395000,0,1
5.490025000,1,1
5.491639000,0,1
5.493223000,1,1
5.494794000,0,1
5.496304000,1,1
5.497874000,0,1
5.499438000,1,1
5.500982000,0,1
5.502599000,1,1
5.504004000,0,1
5.505460000,1,1
5.507003000,0,1
5.508562000,1,1
5.509987000,0,1
5.511462000,1,1
5.512803000,0,1
5.514171000,1,1
5.515522000,0,1
5.516927000,1,1
5.518328000,0,1
5.519661000,1,1
5.520993000,0,1
5.522287000,1,1
5.523670000,0,1
5.525123000,1,1
5.526608000,0,1
5.528060000,1,1
5.529479000,0,1
5.530811000,1,1
5.532219000,0,1
5.533690000,1,1
5.535243000,0,1
5.536802000,1,1
5.538328000,0,1
5.539819000,1,1
5.541400000,0,1
5.543059000,1,1
5.544587000,0,1
5.546035000,1,1
5.547406000,0,1
5.548727000,1,1
5.550058000,0,1
5.551483000,1,1
5.552896000,0,1
5.554292000,1,1
5.555592000,0,1
5.556904000,1,1
5.558115000,0,1
5.559477000,1,1
5.560774000,0,1
5.562211000,1,1
5.563548000,0,1
5.564883000,1,1
5.566178000,0,1
5.567516000,1,1
5.568939000,0,1
5.570425000,1,1
5.571956000,0,1
5.573486000,1,1
5.574978000,0,1
5.576434000,1,1
5.577927000,0,1
5.579488000,1,1
5.581012000,0,1
5.582510000,1,1
5.583998000,0,1
5.585415000,1,1
5.586864000,0,1
5.588405000,1,1
5.589880000,0,1
5.591341000,1,1
5.592680000,0,1
5.594018000,1,1
5.595361000,0,1
5.596689000,1,1
5.598079000,0,1
5.599471000,1,1
5.600786000,0,1
5.602039000,1,1
5.603331000,0,1
5.604672000,1,1
5.606098000,0,1
5.607619000,1,1
5.609061000,0,1
5.610585000,1,1
5.612006000,0,1
5.613601000,1,1
5.615185000,0,1
5.616809000,1,1
5.618398000,0,1
5.619980000,1,1
5.621467000,0,1
5.623095000,1,1
5.624738000,0,1
5.626334000,1,1
5.627929000,0,1
5.629331000,1,1
5.630808000,0,1
5.632369000,1,1
5.633945000,0,1
5.635487000,1,1
5.636953000,0,1
5.638355000,1,1
5.639782000,0,1
5.641249000,1,1
5.642717000,0,1
5.644218000,1,1
5.645610000,0,1
5.646995000,1,1
5.648297000,0,1
5.649741000,1,1
5.651197000,0,1
5.652688000,1,1
5.654059000,0,1
5.655566000,1,1
5.657005000,0,1
5.658477000,1,1
5.659991000,0,1
5.661615000,1,1
5.663134000,0,1
5.664717000,1,1
5.666146000,0,1
5.667761000,1,1
5.669355000,0,1
5.671039000,1,1
5.672589000,0,1
5.674212000,1,1
5.675698000,0,1
5.677330000,1,1
5.678971000,0,1
5.680592000,1,1
5.682043000,0,1
5.683586000,1,1
5.685000000,0,1
5.686567000,1,1
5.688048000,0,1
5.689632000,1,1
5.691134000,0,1
5.692626000,1,1
5.693934000,0,1
5.695351000,1,1
5.696785000,0,1
5.698374000,1,1
5.699779000,0,1
5.701231000,1,1
5.702623000,0,1
5.704098000,1,1
5.705632000,0,1
5.707217000,1,1
5.708815000,0,1
5.710377000,1,1
5.711908000,0,1
5.713405000,1,1
5.714870000,0,1
5.716458000,1,1
5.717976000,0,1
5.719555000,1,1
5.721037000,0,1
5.722513000,1,1
5.724038000,0,1
5.725675000,1,1
5.727269000,0,1
5.728787000,1,1
5.730237000,0,1
5.731661000,1,1
5.733132000,0,1
5.734694000,1,1
5.736275000,0,1
5.737834000,1,1
5.739401000,0,1
5.740957000,1,1
5.742456000,0,1
5.744081000,1,1
5.745723000,0,1
5.747304000,1,1
5.748915000,0,1
5.750450000,1,1
5.751935000,0,1
5.753595000,1,1
5.755283000,0,1
5.756932000,1,1
5.758391000,0,1
5.759895000,1,1
5.761396000,0,1
5.763024000,1,1
5.764464000,0,1
5.765993000,1,1
5.767449000,0,1
5.768888000,1,1
5.770333000,0,1
5.771813000,1,1
5.773296000,0,1
5.774803000,1,1
5.776191000,0,1
5.777645000,1,1
5.779078000,0,1
5.780581000,1,1
5.782023000,0,1
5.783466000,1,1
5.784908000,0,1
5.786286000,1,1
5.787719000,0,1
5.789168000,1,1
5.790661000,0,1
5.792137000,1,1
5.793566000,0,1
5.794857000,1,1
5.796201000,0,1
5.797638000,1,1
5.799026000,0,1
5.800516000,1,1
5.801911000,0,1
5.803362000,1,1
5.804770000,0,1
5.806225000,1,1
5.807621000,0,1
5.809092000,1,1
5.810463000,0,1
5.811907000,1,1
5.813232000,0,1
5.814610000,1,1
5.816015000,0,1
5.817457000,1,1
5.818861000,0,1
5.820261000,1,1
5.821613000,0,1
5.822963000,1,1
5.824324000,0,1
5.825765000,1,1
5.827219000,0,1
5.828638000,1,1
5.830050000,0,1
5.831411000,1,1
5.832808000,0,1
5.834358000,1,1
5.835894000,0,1
5.837435000,1,1
5.838954000,0,1
5.840436000,1,1
5.841989000,0,1
5.843579000,1,1
5.845163000,0,1
5.846704000,1,1
5.848202000,0,1
5.849634000,1,1
5.851136000,0,1
5.852679000,1,1
5.854204000,0,1
5.855680000,1,1
5.857067000,0,1
5.858431000,1,1
5.859812000,0,1
5.861335000,1,1
5.862760000,0,1
5.864272000,1,1
5.865706000,0,1
5.867092000,1,1
5.868505000,0,1
5.869981000,1,1
5.871483000,0,1
5.873002000,1,1
5.874556000,0,1
5.876010000,1,1
5.877425000,0,1
5.878961000,1,1
5.880561000,0,1
5.882113000,1,1
5.883649000,0,1
5.885123000,1,1
5.886590000,0,1
5.888173000,1,1
5.889745000,0,1
5.891323000,1,1
5.892872000,0,1
5.894287000,1,1
5.895700000,0,1
5.897272000,1,1
5.898823000,0,1
5.900353000,1,1
5.901844000,0,1
5.903258000,1,1
5.904760000,0,1
5.906311000,1,1
5.907811000,0,1
5.909237000,1,1
5.910658000,0,1
5.911999000,1,1
5.913363000,0,1
5.914828000,1,1
5.916270000,0,1
5.917787000,1,1
5.919227000,0,1
5.920672000,1,1
5.922072000,0,1
5.923566000,1,1
5.925079000,0,1
5.926594000,1,1
5.928023000,0,1
5.929483000,1,1
5.930835000,0,1
5.932308000,1,1
5.933804000,0,1
5.935355000,1,1
5.936837000,0,1
5.938330000,1,1
5.939770000,0,1
5.941337000,1,1
5.942936000,0,1
5.944557000,1,1
5.946034000,0,1
5.947552000,1,1
5.949037000,0,1
5.950607000,1,1
5.952209000,0,1
5.953857000,1,1
5.955375000,0,1
5.956857000,1,1
5.958324000,0,1
5.959837000,1,1
5.961357000,0,1
5.962935000,1,1
5.964414000,0,1
5.965803000,1,1
5.967243000,0,1
5.968803000,1,1
5.970243000,0,1
5.971682000,1,1
5.973100000,0,1
5.974449000,1,1
5.975743000,0,1
5.977128000,1,1
5.978557000,0,1
5.979997000,1,1
5.981331000,0,1
5.982725000,1,1
5.983980000,0,1
5.985392000,1,1
5.986811000,0,1
5.988259000,1,1
5.989675000,0,1
5.991100000,1,1
5.992461000,0,1
5.993813000,1,1
5.995153000,0,1
5.996649000,1,1
5.998158000,0,1
5.999597000,1,1
6.001051000,0,1
6.002480000,1,1
6.003935000,0,1
6.005481000,1,1
6.006973000,0,1
6.008433000,1,1
6.009839000,0,1
6.011206000,1,1
6.012661000,0,1
6.014095000,1,1
6.015630000,0,1
6.017137000,1,1
6.018610000,0,1
6.019984000,1,1
6.021392000,0,1
6.022874000,1,1
6.024339000,0,1
6.025826000,1,1
6.027307000,0,1
6.028615000,1,1
6.029960000,0,1
6.031396000,1,1
6.032835000,0,1
6.034275000,1,1
6.035681000,0,1
6.037106000,1,1
6.038438000,0,1
6.039894000,1,1
6.041366000,0,1
6.042925000,1,1
6.044372000,0,1
6.045853000,1,1
6.047236000,0,1
6.048726000,1,1
6.050186000,0,1
6.051801000,1,1
6.053291000,0,1
6.054776000,1,1
6.056225000,0,1
6.057764000,1,1
6.059306000,0,1
6.060911000,1,1
6.062402000,0,1
6.063944000,1,1
6.065354000,0,1
6.066911000,1,1
6.068435000,0,1
6.070015000,1,1
6.071546000,0,1
6.073089000,1,1
6.074482000,0,1
6.075967000,1,1
6.077461000,0,1
6.079006000,1,1
6.080465000,0,1
6.081992000,1,1
6.083352000,0,1
6.084806000,1,1
6.086255000,0,1
6.087786000,1,1
6.089198000,0,1
6.090636000,1,1
6.092061000,0,1
6.093514000,1,1
6.094911000,0,1
6.096437000,1,1
6.097961000,0,1
6.099464000,1,1
6.100929000,0,1
6.102439000,1,1
6.103968000,0,1
6.105523000,1,1
6.107072000,0,1
6.108606000,1,1
6.110076000,0,1
6.111543000,1,1
6.113051000,0,1
6.114581000,1,1
6.116167000,0,1
6.117682000,1,1
6.119222000,0,1
6.120603000,1,1
6.122038000,0,1
6.123493000,1,1
6.125000000,0,1
6.126483000,1,1
6.127933000,0,1
6.129298000,1,1
6.130730000,0,1
6.132324000,1,1
6.133902000,0,1
6.135518000,1,1
6.137044000,0,1
6.138556000,1,1
6.140109000,0,1
6.141657000,1,1
6.143234000,0,1
6.144829000,1,1
6.146419000,0,1
6.147847000,1,1
6.149314000,0,1
6.150917000,1,1
6.152528000,0,1
6.154121000,1,1
6.155739000,0,1
6.157222000,1,1
6.158756000,0,1
6.160315000,1,1
6.161929000,0,1
6.163586000,1,1
6.165253000,0,1
6.166832000,1,1
6.168361000,0,1
6.169977000,1,1
6.171619000,0,1
6.173260000,1,1
6.174836000,0,1
6.176373000,1,1
6.177996000,0,1
6.179567000,1,1
6.181171000,0,1
6.182744000,1,1
6.184291000,0,1
6.185766000,1,1
6.187263000,0,1
6.188730000,1,1
6.190296000,0,1
6.191767000,1,1
6.193206000,0,1
6.194620000,1,1
6.196021000,0,1
6.197525000,1,1
6.198968000,0,1
6.200439000,1,1
6.201952000,0,1
6.203372000,1,1
6.204820000,0,1
6.206400000,1,1
6.207993000,0,1
6.209543000,1,1
6.211062000,0,1
6.212578000,1,1
6.214175000,0,1
6.215812000,1,1
6.217472000,0,1
6.219150000,1,1
6.220764000,0,1
6.222347000,1,1
6.224020000,0,1
6.225717000,1,1
6.227404000,0,1
6.229111000,1,1
6.230668000,0,1
6.232250000,1,1
6.233973000,0,1
6.235722000,1,1
6.237294000,0,1
6.238941000,1,1
6.240410000,0,1
6.241969000,1,1
6.243513000,0,1
6.245064000,1,1
6.246483000,0,1
6.247949000,1,1
6.249294000,0,1
6.250726000,1,1
6.252167000,0,1
6.253642000,1,1
6.255017000,0,1
6.256306000,1,1
6.257547000,0,1
6.258791000,1,1
6.260023000,0,1
6.261263000,1,1
6.262502000,0,1
6.263759000,1,1
6.264970000,0,1
6.266257000,1,1
6.267461000,0,1
6.268663000,1,1
6.270000000,0,1
6.271406000,1,1
6.272817000,0,1
6.274301000,1,1
6.275783000,0,1
6.277254000,1,1
6.278724000,0,1
6.280314000,1,1
6.281992000,0,1
6.283644000,1,1
6.285294000,0,1
6.286887000,1,1
6.288554000,0,1
6.290243000,1,1
6.291928000,0,1
6.293544000,1,1
6.295085000,0,1
6.296592000,1,1
6.298105000,0,1
6.299642000,1,1
6.301128000,0,1
6.302590000,1,1
6.303950000,0,1
6.305339000,1,1
6.306759000,0,1
6.308176000,1,1
6.309652000,0,1
6.311097000,1,1
6.312536000,0,1
6.313879000,1,1
6.315290000,0,1
6.316795000,1,1
6.318394000,0,1
6.319940000,1,1
6.321559000,0,1
6.323078000,1,1
6.324665000,0,1
6.326336000,1,1
6.328134000,0,1
6.329864000,1,1
6.331613000,0,1
6.333308000,1,1
6.335002000,0,1
6.336852000,1,1
6.338686000,0,1
6.340412000,1,1
6.341981000,0,1
6.343594000,1,1
6.345161000,0,1
6.346856000,1,1
6.348391000,0,1
6.349858000,1,1
6.351302000,0,1
6.352863000,1,1
6.354372000,0,1
6.355951000,1,1
6.357329000,0,1
6.358738000,1,1
6.360031000,0,1
6.361317000,1,1
6.362627000,0,1
6.363902000,1,1
6.365201000,0,1
6.366515000,1,1
6.367814000,0,1
6.369046000,1,1
6.370313000,0,1
6.371690000,1,1
6.373050000,0,1
6.374461000,1,1
6.375865000,0,1
6.377270000,1,1
6.378589000,0,1
6.380047000,1,1
6.381524000,0,1
6.383087000,1,1
6.384542000,0,1
6.386055000,1,1
6.387474000,0,1
6.389036000,1,1
6.390530000,0,1
6.392106000,1,1
6.393583000,0,1
6.395059000,1,1
6.396499000,0,1
6.397984000,1,1
6.399470000,0,1
6.401013000,1,1
6.402451000,0,1
6.403896000,1,1
6.405226000,0,1
6.406668000,1,1
6.408084000,0,1
6.409609000,1,1
6.411039000,0,1
6.412503000,1,1
6.413881000,0,1
6.415378000,1,1
6.416903000,0,1
6.418448000,1,1
6.419994000,0,1
6.421549000,1,1
6.422958000,0,1
6.424454000,1,1
6.426027000,0,1
6.427669000,1,1
6.429175000,0,1
6.430803000,1,1
6.432161000,0,1
6.433724000,1,1
6.435270000,0,1
6.436885000,1,1
6.438498000,0,1
6.440045000,1,1
6.441533000,0,1
6.443036000,1,1
6.444525000,0,1
6.446080000,1,1
6.447483000,0,1
6.448932000,1,1
6.450326000,0,1
6.451837000,1,1
6.453288000,0,1
6.454752000,1,1
6.456155000,0,1
6.457561000,1,1
6.458840000,0,1
6.460162000,1,1
6.461581000,0,1
6.463014000,1,1
6.464410000,0,1
6.465834000,1,1
6.467199000,0,1
6.468487000,1,1
6.469804000,0,1
6.471169000,1,1
6.472560000,0,1
6.473941000,1,1
6.475312000,0,1
6.476585000,1,1
6.477886000,0,1
6.479243000,1,1
6.480658000,0,1
6.482086000,1,1
6.483384000,0,1
6.484776000,1,1
6.486056000,0,1
6.487393000,1,1
6.488738000,0,1
6.490122000,1,1
6.491484000,0,1
6.492899000,1,1
6.494222000,0,1
6.495581000,1,1
6.497010000,0,1
6.498416000,1,1
6.499915000,0,1
6.501225000,0,0
6.502746000,0,1
6.504333000,1,1
6.505826000,0,1
6.507436000,1,1
6.508818000,1,0
6.510368000,1,1
6.512114000,0,1
6.513577000,1,1
6.515170000,0,1
6.516732000,1,1
6.518384000,0,1
6.519728000,0,0
6.521423000,1,0
6.522887000,0,0
6.524461000,1,0
6.525858000,1,1
6.527513000,0,1
6.529044000,1,1
6.530496000,0,1
6.531896000,1,1
6.533321000,0,1
6.534827000,1,1
6.536345000,0,1
6.537844000,1,1
6.539293000,0,1
6.540483000,0,0
6.542055000,1,0
6.683699000,1,0
