Time [s],RB,RA
-0.027290956,0,1
-0.002415000,1,1
-0.001220000,1,0
-0.000000000,0,0
0.001396000,1,0
0.002666000,0,0
0.003869000,0,1
0.005164000,1,1
0.006566000,0,1
0.008032000,1,1
0.009354000,1,0
0.010727000,0,0
0.012190000,1,0
0.013560000,0,0
0.015015000,1,0
0.016549000,0,0
0.018106000,1,0
0.019640000,1,1
0.021087000,0,1
0.022658000,1,1
0.024255000,0,1
0.025883000,1,1
0.027351000,0,1
0.028931000,1,1
0.030233000,0,1
0.031662000,0,0
0.033179000,0,1
0.034758000,1,1
0.036168000,0,1
0.037715000,1,1
0.039032000,1,0
0.040483000,1,1
0.041989000,0,1
0.043521000,1,1
0.044949000,0,1
0.046469000,1,1
0.047795000,0,1
0.049121000,0,0
0.050504000,1,0
0.051875000,0,0
0.053322000,1,0
0.054598000,0,0
0.055887000,0,1
0.057151000,0,0
0.058568000,0,1
0.059960000,1,1
0.061394000,0,1
0.062939000,1,1
0.064354000,0,1
0.065828000,1,1
0.067206000,0,1
0.068709000,0,0
0.070182000,0,1
0.071621000,0,0
0.073035000,0,1
0.074323000,0,0
0.075673000,0,1
0.077224000,1,1
0.078608000,1,0
0.080055000,0,0
0.081615000,0,1
0.083028000,0,0
0.084479000,0,1
0.085949000,0,0
0.087558000,0,1
0.088888000,0,0
0.090369000,1,0
0.091584000,1,1
0.092816000,1,0
0.094158000,0,0
0.095667000,1,0
0.097069000,1,1
0.098486000,0,1
0.099899000,1,1
0.101099000,1,0
0.102256000,0,0
0.103720000,0,1
0.104926000,1,1
0.106291000,1,0
0.107600000,1,1
0.108625000,0,1
0.109942000,0,0
0.111327000,0,1
0.112575000,1,1
0.114129000,1,0
0.115522000,1,1
0.116678000,0,1
0.118103000,0,0
0.119269000,1,0
0.120703000,1,1
0.121901000,0,1
0.123378000,1,1
0.124702000,0,1
0.126140000,1,1
0.127479000,0,1
0.128982000,0,0
0.130335000,1,0
0.131898000,0,0
0.133544000,0,1
0.135071000,0,0
0.136533000,0,1
0.137791000,1,1
0.139193000,0,1
0.140772000,1,1
0.142059000,0,1
0.143594000,0,0
0.144711000,1,0
0.146155000,1,1
0.147718000,1,0
0.149199000,1,1
0.150528000,1,0
0.151917000,1,1
0.153181000,1,0
0.154322000,0,0
0.155659000,1,0
0.157025000,0,0
0.158559000,0,1
0.159889000,0,0
0.161101000,1,0
0.162535000,1,1
0.163712000,0,1
0.165284000,0,0
0.166729000,1,0
0.168345000,1,1
0.169512000,0,1
0.171111000,0,0
0.172668000,0,1
0.173979000,1,1
0.175482000,0,1
0.177245000,0,0
0.178892000,0,1
0.180417000,0,0
0.181964000,1,0
0.183787000,1,1
0.185203000,0,1
0.186852000,1,1
0.188505000,1,0
0.189861000,0,0
0.191450000,1,0
0.192972000,0,0
0.194714000,0,1
0.196170000,0,0
0.197400000,1,0
0.198978000,1,1
0.200082000,0,1
0.201722000,0,0
0.203044000,1,0
0.204596000,1,1
0.205670000,0,1
0.207165000,0,0
0.208690000,0,1
0.209751000,1,1
0.211134000,0,1
0.212654000,0,0
0.213828000,1,0
0.215064000,0,0
0.216371000,1,0
0.217837000,1,1
0.218925000,0,1
0.220464000,1,1
0.221896000,1,0
0.223117000,0,0
0.224642000,0,1
0.225885000,1,1
0.227375000,0,1
0.229049000,0,0
0.230308000,1,0
0.231759000,0,0
0.233300000,0,1
0.234665000,0,0
0.236006000,1,0
0.237451000,0,0
0.239232000,0,1
0.240683000,0,0
0.241940000,1,0
0.243447000,1,1
0.244575000,0,1
0.246338000,0,0
0.247850000,0,1
0.249203000,0,0
0.250314000,1,0
0.251753000,1,1
0.252785000,0,1
0.254482000,0,0
0.256021000,0,1
0.257345000,0,0
0.258766000,0,1
0.259850000,1,1
0.261255000,1,0
0.262297000,0,0
0.263799000,1,0
0.265127000,0,0
0.266634000,0,1
0.267781000,1,1
0.269027000,0,1
0.270402000,1,1
0.271963000,1,0
0.273511000,1,1
0.274551000,0,1
0.275963000,1,1
0.277273000,0,1
0.278538000,1,1
0.280044000,1,0
0.281437000,1,1
0.282566000,0,1
0.284229000,0,0
0.285424000,1,0
0.286756000,0,0
0.288212000,0,1
0.289417000,1,1
0.290828000,0,1
0.292300000,1,1
0.293524000,0,1
0.295023000,0,0
0.296314000,0,1
0.297572000,0,0
0.298985000,0,1
0.300344000,0,0
0.301570000,1,0
0.302914000,0,0
0.304389000,1,0
0.305930000,1,1
0.307106000,0,1
0.308712000,1,1
0.310245000,0,1
0.311861000,0,0
0.313398000,0,1
0.314650000,1,1
0.316205000,0,1
0.318056000,0,0
0.319645000,1,0
0.321200000,0,0
0.323003000,0,1
0.324453000,1,1
0.326055000,0,1
0.327934000,0,0
0.329403000,1,0
0.331194000,1,1
0.332376000,0,1
0.334031000,1,1
0.335754000,1,0
0.337416000,1,1
0.338616000,0,1
0.340276000,0,0
0.341497000,1,0
0.343108000,1,1
0.344365000,0,1
0.345939000,1,1
0.347456000,1,0
0.348647000,0,0
0.350182000,0,1
0.351374000,1,1
0.352746000,0,1
0.354280000,0,0
0.355693000,1,0
0.357009000,0,0
0.358518000,1,0
0.359813000,0,0
0.361258000,1,0
0.362716000,0,0
0.364483000,0,1
0.365946000,0,0
0.367351000,1,0
0.368976000,1,1
0.370170000,0,1
0.371931000,0,0
0.373394000,1,0
0.375122000,1,1
0.376384000,0,1
0.378000000,0,0
0.379701000,0,1
0.381033000,1,1
0.382625000,0,1
0.384214000,1,1
0.385677000,0,1
0.387238000,1,1
0.388948000,1,0
0.390568000,1,1
0.391892000,0,1
0.393458000,0,0
0.394763000,1,0
0.396128000,0,0
0.397546000,1,0
0.398969000,0,0
0.400718000,0,1
0.402046000,0,0
0.403255000,1,0
0.404542000,0,0
0.405974000,0,1
0.407044000,1,1
0.408436000,1,0
0.409923000,1,1
0.410782000,0,1
0.412333000,0,0
0.413628000,0,1
0.414779000,0,0
0.415780000,1,0
0.417012000,0,0
0.418520000,0,1
0.419592000,1,1
0.420876000,0,1
0.422194000,0,0
0.423264000,1,0
0.424563000,0,0
0.425923000,1,0
0.427240000,0,0
0.428796000,0,1
0.430130000,0,0
0.431522000,0,1
0.432818000,0,0
0.434085000,1,0
0.435818000,1,1
0.437112000,0,1
0.438878000,0,0
0.440274000,1,0
0.441958000,1,1
0.443231000,0,1
0.445022000,0,0
0.446697000,0,1
0.448061000,1,1
0.449491000,0,1
0.451144000,0,0
0.452629000,1,0
0.454171000,0,0
0.455902000,1,0
0.457394000,0,0
0.458860000,1,0
0.460442000,1,1
0.461866000,1,0
0.463560000,1,1
0.464842000,0,1
0.466396000,1,1
0.467813000,0,1
0.469436000,0,0
0.470847000,1,0
0.472468000,0,0
0.474014000,1,0
0.475603000,1,1
0.476856000,0,1
0.478508000,1,1
0.480016000,0,1
0.481733000,1,1
0.483271000,0,1
0.485037000,0,0
0.486301000,1,0
0.487778000,0,0
0.489477000,1,0
0.491077000,0,0
0.492654000,1,0
0.494146000,0,0
0.495761000,1,0
0.497413000,0,0
0.499173000,1,0
0.501113000,1,1
0.502649000,1,0
0.504328000,1,1
0.505750000,0,1
0.507561000,0,0
0.509263000,0,1
0.510899000,0,0
0.512476000,0,1
0.513917000,1,1
0.515458000,0,1
0.517296000,1,1
0.519060000,1,0
0.520622000,1,1
0.522148000,1,0
0.523445000,0,0
0.525121000,1,0
0.526880000,1,1
0.528177000,0,1
0.529657000,1,1
0.531250000,1,0
0.532860000,1,1
0.534361000,1,0
0.535616000,0,0
0.537070000,1,0
0.538493000,0,0
0.539950000,0,1
0.541105000,1,1
0.542545000,0,1
0.543937000,1,1
0.545257000,0,1
0.546740000,0,0
0.548018000,0,1
0.549293000,0,0
0.550429000,1,0
0.551784000,0,0
0.553297000,0,1
0.554653000,0,0
0.555759000,1,0
0.556965000,0,0
0.558360000,0,1
0.559517000,1,1
0.560933000,1,0
0.562389000,1,1
0.563334000,0,1
0.564831000,0,0
0.566211000,0,1
0.567559000,0,0
0.568771000,1,0
0.570347000,1,1
0.571700000,1,0
0.573221000,1,1
0.574277000,0,1
0.575786000,0,0
0.577304000,0,1
0.578736000,0,0
0.580081000,1,0
0.581465000,0,0
0.583034000,0,1
0.584392000,0,0
0.585854000,0,1
0.587260000,0,0
0.588667000,1,0
0.589991000,0,0
0.591552000,1,0
0.592794000,0,0
0.594205000,1,0
0.595561000,0,0
0.597303000,0,1
0.598492000,1,1
0.599860000,0,1
0.601401000,0,0
0.602867000,0,1
0.604046000,1,1
0.605740000,1,0
0.607282000,1,1
0.608740000,1,0
0.609974000,0,0
0.611592000,0,1
0.612856000,1,1
0.614601000,1,0
0.616242000,1,1
0.617511000,0,1
0.619263000,0,0
0.620618000,1,0
0.622156000,0,0
0.623907000,1,0
0.625676000,1,1
0.627218000,1,0
0.628521000,0,0
0.630442000,0,1
0.631849000,1,1
0.633459000,0,1
0.635258000,0,0
0.636598000,1,0
0.638049000,0,0
0.639715000,1,0
0.641261000,0,0
0.643090000,0,1
0.644671000,0,0
0.646287000,0,1
0.647653000,1,1
0.649388000,1,0
0.650868000,0,0
0.652791000,0,1
0.654349000,0,0
0.655839000,0,1
0.657237000,1,1
0.658698000,0,1
0.660338000,1,1
0.661742000,0,1
0.663416000,0,0
0.664912000,0,1
0.666154000,1,1
0.667733000,1,0
0.669287000,1,1
0.670708000,1,0
0.671910000,0,0
0.673414000,0,1
0.674555000,1,1
0.676138000,1,0
0.677269000,0,0
0.678766000,1,0
0.680269000,1,1
0.681341000,0,1
0.682745000,0,0
0.684153000,0,1
0.685447000,0,0
0.686660000,1,0
0.688178000,1,1
0.689553000,1,0
0.690492000,0,0
0.692012000,0,1
0.693363000,0,0
0.694426000,1,0
0.695746000,0,0
0.697122000,1,0
0.698568000,1,1
0.699832000,1,0
0.701137000,1,1
0.702080000,0,1
0.703578000,0,0
0.705165000,0,1
0.706259000,1,1
0.707598000,0,1
0.709144000,0,0
0.710316000,1,0
0.711722000,0,0
0.713327000,1,0
0.714866000,1,1
0.715989000,0,1
0.717549000,1,1
0.718741000,0,1
0.720177000,1,1
0.721699000,1,0
0.723267000,1,1
0.724375000,0,1
0.725827000,1,1
0.727125000,0,1
0.728584000,0,0
0.730006000,0,1
0.731114000,1,1
0.732496000,0,1
0.733981000,1,1
0.735221000,0,1
0.736753000,0,0
0.737884000,1,0
0.739424000,1,1
0.740989000,1,0
0.742215000,0,0
0.743934000,0,1
0.745378000,0,0
0.746865000,0,1
0.748198000,1,1
0.749886000,1,0
0.751636000,1,1
0.753149000,1,0
0.754508000,0,0
0.756044000,1,0
0.757686000,0,0
0.759509000,0,1
0.761130000,0,0
0.762828000,0,1
0.764380000,0,0
0.765829000,1,0
0.767338000,0,0
0.769124000,1,0
0.770698000,0,0
0.772642000,0,1
0.774143000,0,0
0.775860000,0,1
0.777374000,1,1
0.779066000,0,1
0.780873000,0,0
0.782413000,1,0
0.783974000,0,0
0.785883000,0,1
0.787594000,0,0
0.789337000,0,1
0.790849000,1,1
0.792296000,0,1
0.793962000,1,1
0.795563000,0,1
0.797300000,1,1
0.798904000,0,1
0.800771000,0,0
0.802315000,0,1
0.803755000,1,1
0.805332000,0,1
0.807053000,0,0
0.808584000,0,1
0.810102000,0,0
0.811425000,1,0
0.813060000,1,1
0.814607000,1,0
0.815982000,0,0
0.817545000,1,0
0.819128000,1,1
0.820299000,0,1
0.821809000,1,1
0.823398000,1,0
0.825071000,1,1
0.826487000,1,0
0.827819000,0,0
0.829255000,1,0
0.830981000,1,1
0.832515000,1,0
0.834074000,1,1
0.835326000,0,1
0.836951000,0,0
0.838434000,0,1
0.839973000,0,0
0.841290000,1,0
0.842746000,0,0
0.844494000,0,1
0.845912000,0,0
0.847245000,1,0
0.848833000,1,1
0.850070000,0,1
0.851717000,1,1
0.853119000,0,1
0.854737000,0,0
0.856168000,0,1
0.857553000,0,0
0.858822000,1,0
0.860485000,1,1
0.862008000,1,0
0.863221000,0,0
0.864723000,1,0
0.866098000,1,1
0.867313000,0,1
0.868784000,1,1
0.870292000,1,0
0.871775000,1,1
0.873149000,1,0
0.874262000,0,0
0.875670000,1,0
0.877028000,0,0
0.878549000,1,0
0.879987000,0,0
0.881684000,0,1
0.883046000,0,0
0.884477000,0,1
0.885883000,0,0
0.887322000,1,0
0.888986000,1,1
0.890511000,1,0
0.892131000,1,1
0.893384000,0,1
0.895039000,0,0
0.896762000,0,1
0.898250000,0,0
0.899748000,1,0
0.901198000,0,0
0.902684000,1,0
0.904274000,0,0
0.906059000,0,1
0.907573000,0,0
0.909256000,0,1
0.910621000,0,0
0.912013000,1,0
0.913696000,1,1
0.915248000,1,0
0.916805000,1,1
0.918122000,0,1
0.919564000,0,0
0.921122000,0,1
0.922465000,1,1
0.923938000,0,1
0.925621000,0,0
0.927160000,1,0
0.928513000,0,0
0.930093000,1,0
0.931749000,1,1
0.933273000,1,0
0.934862000,1,1
0.936151000,0,1
0.937571000,1,1
0.939091000,0,1
0.940598000,1,1
0.942322000,1,0
0.943850000,1,1
0.945410000,1,0
0.946709000,0,0
0.948161000,1,0
0.949708000,0,0
0.951302000,0,1
0.952715000,0,0
0.954222000,0,1
0.955502000,0,0
0.956814000,1,0
0.958254000,0,0
0.959825000,1,0
0.961172000,0,0
0.962640000,1,0
0.963956000,0,0
0.965406000,0,1
0.966723000,0,0
0.968226000,0,1
0.969525000,0,0
0.970778000,1,0
0.972282000,1,1
0.973367000,0,1
0.974850000,1,1
0.976382000,1,0
0.977915000,1,1
0.979303000,1,0
0.980543000,0,0
0.981913000,1,0
0.983267000,0,0
0.984675000,1,0
0.986110000,0,0
0.987724000,0,1
0.989102000,0,0
0.990585000,0,1
0.991774000,1,1
0.993138000,0,1
0.994741000,0,0
0.996294000,0,1
0.997664000,0,0
0.998992000,1,0
1.000437000,1,1
1.001960000,1,0
1.003533000,1,1
1.004848000,0,1
1.006305000,1,1
1.007761000,0,1
1.009109000,1,1
1.010749000,1,0
1.012307000,1,1
1.013659000,0,1
1.015141000,1,1
1.016689000,0,1
1.018201000,0,0
1.019615000,1,0
1.021107000,0,0
1.022856000,0,1
1.024342000,0,0
1.025871000,0,1
1.027247000,0,0
1.028671000,1,0
1.030141000,0,0
1.031747000,1,0
1.033165000,0,0
1.034684000,1,0
1.036244000,1,1
1.037690000,1,0
1.039121000,0,0
1.040701000,1,0
1.042418000,1,1
1.043679000,0,1
1.045232000,1,1
1.046829000,1,0
1.048589000,1,1
1.050002000,0,1
1.051628000,1,1
1.053269000,1,0
1.054917000,1,1
1.056350000,0,1
1.058025000,1,1
1.059598000,0,1
1.061187000,0,0
1.062561000,1,0
1.064145000,0,0
1.065828000,1,0
1.067513000,1,1
1.069100000,1,0
1.070769000,1,1
1.072124000,0,1
1.073888000,0,0
1.075651000,0,1
1.077116000,1,1
1.078625000,0,1
1.080071000,1,1
1.081514000,0,1
1.083102000,1,1
1.084821000,1,0
1.086408000,1,1
1.087797000,0,1
1.089243000,1,1
1.090692000,1,0
1.091886000,0,0
1.093183000,0,1
1.094575000,0,0
1.095923000,0,1
1.097178000,0,0
1.098432000,0,1
1.099713000,1,1
1.101003000,0,1
1.102431000,0,0
1.103918000,0,1
1.105250000,1,1
1.106502000,1,0
1.107877000,1,1
1.109129000,0,1
1.110640000,1,1
1.112072000,0,1
1.113412000,1,1
1.114701000,1,0
1.116022000,0,0
1.117484000,1,0
1.118863000,1,1
1.120304000,0,1
1.121769000,1,1
1.123140000,0,1
1.124359000,0,0
1.125692000,1,0
1.127019000,0,0
1.128443000,1,0
1.129701000,1,1
1.130998000,0,1
1.132276000,0,0
1.133575000,1,0
1.134896000,0,0
1.136118000,0,1
1.137478000,0,0
1.138917000,0,1
1.140201000,1,1
1.141501000,0,1
1.142813000,1,1
1.144065000,0,1
1.145494000,1,1
1.146758000,1,0
1.148250000,1,1
1.149624000,1,0
1.151048000,1,1
1.152359000,1,0
1.153874000,1,1
1.155317000,1,0
1.156865000,0,0
1.158302000,1,0
1.159809000,0,0
1.161153000,0,1
1.162621000,0,0
1.164305000,1,0
1.165952000,1,1
1.167512000,0,1
1.169028000,0,0
1.170627000,1,0
1.172199000,1,1
1.173835000,0,1
1.175455000,0,0
1.177199000,1,0
1.178686000,1,1
1.180282000,0,1
1.181874000,0,0
1.183712000,0,1
1.185493000,1,1
1.187129000,0,1
1.188670000,0,0
1.190491000,1,0
1.192064000,1,1
1.193749000,1,0
1.195585000,0,0
1.197123000,0,1
1.198738000,1,1
1.200444000,0,1
1.202108000,0,0
1.203813000,0,1
1.205534000,1,1
1.206950000,0,1
1.208614000,1,1
1.210088000,0,1
1.211538000,0,0
1.213178000,1,0
1.214579000,1,1
1.215992000,0,1
1.217608000,1,1
1.218980000,0,1
1.220582000,1,1
1.221936000,1,0
1.223450000,0,0
1.224830000,1,0
1.226104000,1,1
1.227624000,0,1
1.228956000,0,0
1.230517000,0,1
1.232030000,1,1
1.233289000,1,0
1.234740000,0,0
1.236338000,1,0
1.237675000,1,1
1.239142000,1,0
1.240591000,0,0
1.242052000,1,0
1.243235000,1,1
1.244593000,1,0
1.246170000,0,0
1.247692000,1,0
1.248923000,1,1
1.250421000,0,1
1.251876000,1,1
1.253224000,0,1
1.254443000,0,0
1.256021000,1,0
1.257435000,0,0
1.258853000,1,0
1.260094000,1,1
1.261398000,0,1
1.262888000,1,1
1.264307000,0,1
1.265814000,1,1
1.267061000,1,0
1.268586000,1,1
1.269911000,1,0
1.271283000,1,1
1.272668000,0,1
1.274082000,1,1
1.275540000,0,1
1.276976000,1,1
1.278280000,1,0
1.279680000,0,0
1.281256000,1,0
1.282705000,1,1
1.284327000,1,0
1.285883000,1,1
1.287395000,1,0
1.288925000,0,0
1.290433000,0,1
1.292017000,1,1
1.293691000,0,1
1.295065000,0,0
1.296661000,0,1
1.298244000,1,1
1.299745000,0,1
1.301288000,0,0
1.303045000,1,0
1.304470000,0,0
1.306031000,1,0
1.307327000,1,1
1.308823000,0,1
1.310322000,0,0
1.311932000,1,0
1.313349000,0,0
1.314869000,1,0
1.316271000,1,1
1.317768000,0,1
1.319110000,0,0
1.320738000,1,0
1.322027000,1,1
1.323457000,1,0
1.324789000,0,0
1.326116000,0,1
1.327596000,1,1
1.329052000,0,1
1.330253000,0,0
1.331723000,0,1
1.333125000,1,1
1.334448000,0,1
1.335890000,1,1
1.337319000,0,1
1.338823000,1,1
1.340155000,0,1
1.341524000,1,1
1.342619000,1,0
1.344010000,0,0
1.345486000,1,0
1.346862000,0,0
1.348194000,1,0
1.349487000,0,0
1.350827000,1,0
1.352063000,0,0
1.353395000,1,0
1.354804000,0,0
1.356061000,0,1
1.357337000,0,0
1.358849000,1,0
1.359968000,1,1
1.361235000,0,1
1.362467000,0,0
1.363977000,0,1
1.365409000,1,1
1.366632000,1,0
1.368081000,1,1
1.369382000,1,0
1.370896000,0,0
1.372206000,0,1
1.373751000,0,0
1.375291000,1,0
1.376604000,1,1
1.377993000,0,1
1.410836000,0,1
